<mxfile host="app.diagrams.net" modified="2022-01-27T06:22:42.711Z" agent="5.0 (Windows NT 10.0; Win64; x64) AppleWebKit/537.36 (KHTML, like Gecko) Chrome/96.0.4664.110 Safari/537.36" etag="2FGJOUwgEAg4hY4VCFgU" version="16.4.7" type="gitlab">
  <diagram id="piDafpqhtRUU5qUU-vj8" name="Page-1">
    <mxGraphModel dx="2391" dy="2133" grid="1" gridSize="10" guides="1" tooltips="1" connect="1" arrows="1" fold="1" page="1" pageScale="1" pageWidth="827" pageHeight="1169" math="0" shadow="0">
      <root>
        <mxCell id="0" />
        <mxCell id="1" parent="0" />
        <mxCell id="8962rQQDY3VNNf6We3Pp-1" value="" style="strokeWidth=1;shadow=0;dashed=0;align=center;html=1;shape=mxgraph.mockup.containers.browserWindow;rSize=0;strokeColor2=#008cff;strokeColor3=#c4c4c4;mainText=,;recursiveResize=0;strokeColor=#82b366;fillColor=#F5FFF5;" parent="1" vertex="1">
          <mxGeometry x="-40" y="-50" width="1150" height="890" as="geometry" />
        </mxCell>
        <mxCell id="3oVqcLgR1IPBzn-PjtQC-1" value="" style="rounded=1;whiteSpace=wrap;html=1;fillColor=#d5e8d4;strokeColor=#82b366;" parent="8962rQQDY3VNNf6We3Pp-1" vertex="1">
          <mxGeometry x="50" y="280" width="470" height="350" as="geometry" />
        </mxCell>
        <mxCell id="v1JNl6MFlOhRO9bkZqq--6" value="" style="rounded=0;whiteSpace=wrap;html=1;fontSize=35;fillColor=#f5f5f5;fontColor=#333333;strokeColor=#666666;" vertex="1" parent="8962rQQDY3VNNf6We3Pp-1">
          <mxGeometry x="300" y="390" width="140" height="110" as="geometry" />
        </mxCell>
        <mxCell id="v1JNl6MFlOhRO9bkZqq--4" value="" style="rounded=0;whiteSpace=wrap;html=1;fontSize=35;fillColor=#f5f5f5;fontColor=#333333;strokeColor=#666666;" vertex="1" parent="8962rQQDY3VNNf6We3Pp-1">
          <mxGeometry x="130" y="390" width="135" height="110" as="geometry" />
        </mxCell>
        <mxCell id="xRmcgWYvare_yrx0wSAM-2" value="" style="rounded=0;whiteSpace=wrap;html=1;fontSize=21;fillColor=#d5e8d4;strokeColor=#82b366;" parent="8962rQQDY3VNNf6We3Pp-1" vertex="1">
          <mxGeometry y="110" width="1150" height="60" as="geometry" />
        </mxCell>
        <mxCell id="8962rQQDY3VNNf6We3Pp-2" value="Page 1" style="strokeWidth=1;shadow=0;dashed=0;align=center;html=1;shape=mxgraph.mockup.containers.anchor;fontSize=17;fontColor=#666666;align=left;" parent="8962rQQDY3VNNf6We3Pp-1" vertex="1">
          <mxGeometry x="60" y="12" width="110" height="26" as="geometry" />
        </mxCell>
        <mxCell id="8962rQQDY3VNNf6We3Pp-3" value="https://www.example.com" style="strokeWidth=1;shadow=0;dashed=0;align=center;html=1;shape=mxgraph.mockup.containers.anchor;rSize=0;fontSize=17;fontColor=#666666;align=left;" parent="8962rQQDY3VNNf6We3Pp-1" vertex="1">
          <mxGeometry x="130" y="60" width="250" height="26" as="geometry" />
        </mxCell>
        <mxCell id="8962rQQDY3VNNf6We3Pp-14" value="Log Out" style="rounded=1;align=center;strokeColor=#82b366;html=1;fontSize=12;fillColor=#7CCF7C;" parent="8962rQQDY3VNNf6We3Pp-1" vertex="1">
          <mxGeometry x="1045" y="127" width="86" height="33" as="geometry" />
        </mxCell>
        <mxCell id="8962rQQDY3VNNf6We3Pp-16" value="Plant Doctor&amp;nbsp;" style="text;html=1;strokeColor=none;fillColor=none;align=center;verticalAlign=middle;whiteSpace=wrap;rounded=0;fontSize=28;fontColor=#5C998E;fontStyle=1" parent="8962rQQDY3VNNf6We3Pp-1" vertex="1">
          <mxGeometry x="140" y="130" width="230" height="20" as="geometry" />
        </mxCell>
        <mxCell id="8962rQQDY3VNNf6We3Pp-35" value="" style="verticalLabelPosition=bottom;shadow=0;dashed=0;align=center;html=1;verticalAlign=top;strokeWidth=1;shape=mxgraph.mockup.markup.line;strokeColor=#999999;fillColor=#008CFF;fontSize=13;fontColor=#0066CC;" parent="8962rQQDY3VNNf6We3Pp-1" vertex="1">
          <mxGeometry y="810" width="1150" height="80" as="geometry" />
        </mxCell>
        <mxCell id="8962rQQDY3VNNf6We3Pp-17" value="" style="html=1;verticalLabelPosition=bottom;align=center;labelBackgroundColor=#ffffff;verticalAlign=top;strokeWidth=2;strokeColor=#009900;shadow=0;dashed=0;shape=mxgraph.ios7.icons.video_conversation;fontSize=13;fontColor=#0066CC;fillColor=#FFFFFF;" parent="8962rQQDY3VNNf6We3Pp-1" vertex="1">
          <mxGeometry x="152.5" y="415" width="90" height="60" as="geometry" />
        </mxCell>
        <mxCell id="xRmcgWYvare_yrx0wSAM-4" value="" style="shape=image;html=1;verticalAlign=top;verticalLabelPosition=bottom;labelBackgroundColor=#ffffff;imageAspect=0;aspect=fixed;image=https://cdn0.iconfinder.com/data/icons/green-world-colored/80/leaf-nature-green-enviroment-128.png;fontSize=21;fontColor=#5C998E;strokeColor=#009900;fillColor=#7CCF7C;" parent="8962rQQDY3VNNf6We3Pp-1" vertex="1">
          <mxGeometry x="71.75" y="96.75" width="86.5" height="86.5" as="geometry" />
        </mxCell>
        <mxCell id="xRmcgWYvare_yrx0wSAM-10" value="&lt;h1&gt;Plant Disease&lt;/h1&gt;&lt;div&gt;&lt;br&gt;&lt;/div&gt;&lt;div&gt;&lt;br&gt;&lt;/div&gt;&lt;div&gt;&lt;br&gt;&lt;/div&gt;&lt;div&gt;&lt;br&gt;&lt;/div&gt;&lt;div&gt;&lt;br&gt;&lt;/div&gt;&lt;p&gt;&lt;br&gt;&lt;/p&gt;&lt;p&gt;&lt;br&gt;&lt;/p&gt;&lt;p&gt;Disease Type: ----------------------&lt;/p&gt;&lt;p&gt;Causes of Disease: ---------------------&lt;br&gt;&lt;/p&gt;&lt;p&gt;Suggestion: ---------------------&lt;/p&gt;" style="text;html=1;strokeColor=none;fillColor=none;spacing=5;spacingTop=-20;whiteSpace=wrap;overflow=hidden;rounded=0;fontSize=21;fontColor=#5C998E;" parent="8962rQQDY3VNNf6We3Pp-1" vertex="1">
          <mxGeometry x="650" y="230" width="430" height="590" as="geometry" />
        </mxCell>
        <mxCell id="xRmcgWYvare_yrx0wSAM-11" value="&lt;font color=&quot;#000000&quot; size=&quot;1&quot;&gt;&lt;b style=&quot;font-size: 27px&quot;&gt;Predict&lt;/b&gt;&lt;/font&gt;" style="rounded=1;whiteSpace=wrap;html=1;fontSize=21;fontColor=#5C998E;strokeColor=#009900;fillColor=#7CCF7C;" parent="8962rQQDY3VNNf6We3Pp-1" vertex="1">
          <mxGeometry x="193.75" y="650" width="182.5" height="50" as="geometry" />
        </mxCell>
        <mxCell id="xRmcgWYvare_yrx0wSAM-12" value="www.plant_doctor.com" style="text;html=1;resizable=0;autosize=1;align=center;verticalAlign=middle;points=[];fillColor=none;strokeColor=none;rounded=0;fontSize=27;fontColor=#000000;" parent="8962rQQDY3VNNf6We3Pp-1" vertex="1">
          <mxGeometry x="461.25" y="850" width="290" height="40" as="geometry" />
        </mxCell>
        <mxCell id="v1JNl6MFlOhRO9bkZqq--2" value="&lt;font style=&quot;font-size: 35px&quot;&gt;&lt;b&gt;Give An Image of Plant Leaf&lt;/b&gt;&lt;/font&gt;" style="text;html=1;resizable=0;autosize=1;align=center;verticalAlign=middle;points=[];fillColor=none;strokeColor=none;rounded=0;" vertex="1" parent="8962rQQDY3VNNf6We3Pp-1">
          <mxGeometry x="45" y="230" width="480" height="30" as="geometry" />
        </mxCell>
        <mxCell id="v1JNl6MFlOhRO9bkZqq--5" value="" style="html=1;verticalLabelPosition=bottom;align=center;labelBackgroundColor=#ffffff;verticalAlign=top;strokeWidth=2;strokeColor=#009900;shadow=0;dashed=0;shape=mxgraph.ios7.icons.share;fontSize=35;" vertex="1" parent="8962rQQDY3VNNf6We3Pp-1">
          <mxGeometry x="345" y="415" width="50" height="60" as="geometry" />
        </mxCell>
        <mxCell id="v1JNl6MFlOhRO9bkZqq--7" value="&lt;font size=&quot;1&quot;&gt;&lt;span style=&quot;font-size: 22px&quot;&gt;Camera&lt;/span&gt;&lt;/font&gt;" style="text;html=1;resizable=0;autosize=1;align=center;verticalAlign=middle;points=[];fillColor=none;strokeColor=none;rounded=0;" vertex="1" parent="8962rQQDY3VNNf6We3Pp-1">
          <mxGeometry x="152.5" y="510" width="90" height="20" as="geometry" />
        </mxCell>
        <mxCell id="v1JNl6MFlOhRO9bkZqq--8" value="&lt;font size=&quot;1&quot;&gt;&lt;span style=&quot;font-size: 22px&quot;&gt;Upload&lt;/span&gt;&lt;/font&gt;" style="text;html=1;resizable=0;autosize=1;align=center;verticalAlign=middle;points=[];fillColor=none;strokeColor=none;rounded=0;" vertex="1" parent="8962rQQDY3VNNf6We3Pp-1">
          <mxGeometry x="325" y="510" width="90" height="20" as="geometry" />
        </mxCell>
        <mxCell id="v1JNl6MFlOhRO9bkZqq--10" value="" style="verticalLabelPosition=bottom;shadow=0;dashed=0;align=center;html=1;verticalAlign=top;strokeWidth=1;shape=mxgraph.mockup.graphics.simpleIcon;strokeColor=#999999;fontSize=22;fillColor=#FFFFFF;" vertex="1" parent="8962rQQDY3VNNf6We3Pp-1">
          <mxGeometry x="700" y="300" width="330" height="240" as="geometry" />
        </mxCell>
        <mxCell id="v1JNl6MFlOhRO9bkZqq--11" value="&lt;font style=&quot;font-size: 25px&quot;&gt;(picture of leaf with same&lt;br&gt;&amp;nbsp;disease as predicted)&lt;/font&gt;" style="text;html=1;resizable=0;autosize=1;align=center;verticalAlign=middle;points=[];fillColor=none;strokeColor=none;rounded=0;" vertex="1" parent="8962rQQDY3VNNf6We3Pp-1">
          <mxGeometry x="715" y="400" width="290" height="40" as="geometry" />
        </mxCell>
      </root>
    </mxGraphModel>
  </diagram>
</mxfile>
